/home/tku/Dokumenty/Projects/Java/Sockets/chat/ChatServer/src/main/java/pl/outerspace/chatserver/ChatServer.java
/home/tku/Dokumenty/Projects/Java/Sockets/chat/ChatServer/src/main/java/pl/outerspace/chatserver/whiteboard/FigureDecoder.java
/home/tku/Dokumenty/Projects/Java/Sockets/chat/ChatServer/src/main/java/pl/outerspace/chatserver/whiteboard/FigureEncoder.java
/home/tku/Dokumenty/Projects/Java/Sockets/chat/ChatServer/src/main/java/pl/outerspace/chatserver/whiteboard/Figure.java
/home/tku/Dokumenty/Projects/Java/Sockets/chat/ChatServer/src/main/java/pl/outerspace/chatserver/whiteboard/Coordinates.java
/home/tku/Dokumenty/Projects/Java/Sockets/chat/ChatServer/src/main/java/pl/outerspace/chatserver/ChatMessage.java
/home/tku/Dokumenty/Projects/Java/Sockets/chat/ChatServer/src/main/java/pl/outerspace/chatserver/whiteboard/MyWhiteboard.java
